001414a0-1e6e-11e5-b659-b74121ae67a4,"AVALIAÇÃO GERAL",00143bb0-1e6e-11e5-b659-b74121ae67a4,"1. Avaliação geral da atividade"
00143bb1-1e6e-11e5-b659-b74121ae67a4,RESULTADOS,00143bb2-1e6e-11e5-b659-b74121ae67a4,"2. Nível de aprendizagem adquirido"
00143bb1-1e6e-11e5-b659-b74121ae67a4,RESULTADOS,001462c0-1e6e-11e5-b659-b74121ae67a4,"3. Aplicabilidade ao posto de trabalho"
00143bb1-1e6e-11e5-b659-b74121ae67a4,RESULTADOS,001462c1-1e6e-11e5-b659-b74121ae67a4,"4. Grau de aproveitamento dos objetivos do curso"
001462c2-1e6e-11e5-b659-b74121ae67a4,INSTRUTORES,001462c3-1e6e-11e5-b659-b74121ae67a4,"5. Qualidade do Instrutor"
001462c2-1e6e-11e5-b659-b74121ae67a4,INSTRUTORES,001462c4-1e6e-11e5-b659-b74121ae67a4,"John Roe"
001462c2-1e6e-11e5-b659-b74121ae67a4,INSTRUTORES,001462c5-1e6e-11e5-b659-b74121ae67a4,"6. Qualidade do Conteúdo"
001462c2-1e6e-11e5-b659-b74121ae67a4,INSTRUTORES,001489d0-1e6e-11e5-b659-b74121ae67a4,"John Roe"
001489d1-1e6e-11e5-b659-b74121ae67a4,"CONTEÚDO E METODOLOGIA",001489d2-1e6e-11e5-b659-b74121ae67a4,"7. Relevância dos conteúdos"
001489d1-1e6e-11e5-b659-b74121ae67a4,"CONTEÚDO E METODOLOGIA",001489d3-1e6e-11e5-b659-b74121ae67a4,"8. Qualidade dos exercícios e casos práticos"
001489d1-1e6e-11e5-b659-b74121ae67a4,"CONTEÚDO E METODOLOGIA",001489d4-1e6e-11e5-b659-b74121ae67a4,"9. Meios Didáticos"
001489d1-1e6e-11e5-b659-b74121ae67a4,"CONTEÚDO E METODOLOGIA",001489d5-1e6e-11e5-b659-b74121ae67a4,"10. Material Entregue"
001489d1-1e6e-11e5-b659-b74121ae67a4,"CONTEÚDO E METODOLOGIA",001489d6-1e6e-11e5-b659-b74121ae67a4,"11. Duração"
001489d7-1e6e-11e5-b659-b74121ae67a4,"LOGÍSTICA E OUTROS ASPECTOS",001489d8-1e6e-11e5-b659-b74121ae67a4,"12. Convocação (tempo e forma)"
001489d7-1e6e-11e5-b659-b74121ae67a4,"LOGÍSTICA E OUTROS ASPECTOS",001489d9-1e6e-11e5-b659-b74121ae67a4,"13. Sala"
001489d7-1e6e-11e5-b659-b74121ae67a4,"LOGÍSTICA E OUTROS ASPECTOS",001489da-1e6e-11e5-b659-b74121ae67a4,"14. Informação e atenção"
001489d7-1e6e-11e5-b659-b74121ae67a4,"LOGÍSTICA E OUTROS ASPECTOS",001489db-1e6e-11e5-b659-b74121ae67a4,"15. Manutenção (se existiu)"
001489d7-1e6e-11e5-b659-b74121ae67a4,"LOGÍSTICA E OUTROS ASPECTOS",001489dc-1e6e-11e5-b659-b74121ae67a4,"16. Hospedagem (se utilizado)"
001489d7-1e6e-11e5-b659-b74121ae67a4,"LOGÍSTICA E OUTROS ASPECTOS",001489dd-1e6e-11e5-b659-b74121ae67a4,"17. Passagem Aérea (se utilizado)"